{
  "name": "evento",
  "base": "PersistedModel",
  "idInjection": true,
  "options": {
    "validateUpsert": true
  },
  "properties": {
    "titulo": {
      "type": "string",
      "required": true,
      "index": {
        "unique": true
      }
    },
    "tipo": {
      "type": "string",
      "required": true
    },
    "descripcion": {
      "type": "string",
      "required": true,
      "length": 4096
    },
    "imgpath": {
      "type": "string",
      "required": true
    },
    "fecha": {
      "type": "date",
      "required": true
    },
    "lugar": {
      "type": "string",
      "required": true
    },
    "auspiciadores": {
      "type": "string",
      "required": true
    },
    "entrada": {
      "type": "string",
      "required": true
    },
    "dirigido_a": {
      "type": "string",
      "required": true
    },
    "contactos": {
      "type": "string",
      "required": true
    },
    "descripcion_capacitador": {
      "type": "string"
    }
  },
  "validations": [],
  "relations": {
    "participantes": {
      "type": "hasMany",
      "model": "participante",
      "foreignKey": ""
    }
  },
  "acls": [
    {
      "accessType": "*",
      "principalType": "ROLE",
      "principalId": "$everyone",
      "permission": "DENY"
    },
    {
      "accessType": "READ",
      "principalType": "ROLE",
      "principalId": "$everyone",
      "permission": "ALLOW"
    },
    {
      "accessType": "WRITE",
      "principalType": "ROLE",
      "principalId": "admin",
      "permission": "ALLOW"
    }
  ],
  "methods": {}
}
